Library\Bee\artifacts\mvdfrm\Unity.EditorCoroutines.Editor.ref.dll_34ED10A34098B2DB.mvfrm
Library\Bee\artifacts\mvdfrm\Unity.Performance.Profile-Analyzer.Editor.ref.dll_65A192712782EB2B.mvfrm
Library\Bee\artifacts\mvdfrm\Unity.PlasticSCM.Editor.ref.dll_257AEB342BE77856.mvfrm
Library\Bee\artifacts\mvdfrm\Unity.Rider.Editor.ref.dll_9B5591808ABA37AF.mvfrm
Library\Bee\artifacts\mvdfrm\Unity.Services.Core.Analytics.ref.dll_EDA1682A714EA6BF.mvfrm
Library\Bee\artifacts\mvdfrm\Unity.Services.Core.Environments.ref.dll_7E0AC2CDE81D9C6D.mvfrm
Library\Bee\artifacts\mvdfrm\Unity.Services.Core.ref.dll_131AC9C5EC6E6517.mvfrm
Library\Bee\artifacts\mvdfrm\Unity.TestTools.CodeCoverage.Editor.OpenCover.Model.ref.dll_D3B9364D6FB03093.mvfrm
Library\Bee\artifacts\mvdfrm\Unity.TestTools.CodeCoverage.Editor.OpenCover.Mono.Reflection.ref.dll_E668CD773429A040.mvfrm
Library\Bee\artifacts\mvdfrm\Unity.TestTools.CodeCoverage.Editor.ref.dll_F09CF4826CE11CD9.mvfrm
Library\Bee\artifacts\mvdfrm\Unity.TextMeshPro.Editor.ref.dll_159E061D77A10B86.mvfrm
Library\Bee\artifacts\mvdfrm\Unity.TextMeshPro.ref.dll_84A4293DBDD182DB.mvfrm
Library\Bee\artifacts\mvdfrm\Unity.Timeline.Editor.ref.dll_0D3D3C0B73557612.mvfrm
Library\Bee\artifacts\mvdfrm\Unity.Timeline.ref.dll_621CDDF9C514DF8F.mvfrm
Library\Bee\artifacts\mvdfrm\Unity.VSCode.Editor.ref.dll_3628369EB48E4C19.mvfrm
Library\Bee\artifacts\mvdfrm\Unity.VisualScripting.Core.Editor.ref.dll_EDC8690F57C5BDFD.mvfrm
Library\Bee\artifacts\mvdfrm\Unity.VisualScripting.Core.ref.dll_D75DF4EA1AFE54F4.mvfrm
Library\Bee\artifacts\mvdfrm\Unity.VisualScripting.Flow.Editor.ref.dll_6AF951BE66A4493E.mvfrm
Library\Bee\artifacts\mvdfrm\Unity.VisualScripting.Flow.ref.dll_1E6ED5409D07C9A3.mvfrm
Library\Bee\artifacts\mvdfrm\Unity.VisualScripting.SettingsProvider.Editor.ref.dll_A1A44354E0B583A8.mvfrm
Library\Bee\artifacts\mvdfrm\Unity.VisualScripting.Shared.Editor.ref.dll_9669F6EBFF6DFFB7.mvfrm
Library\Bee\artifacts\mvdfrm\Unity.VisualScripting.State.Editor.ref.dll_E03858E727F23F6F.mvfrm
Library\Bee\artifacts\mvdfrm\Unity.VisualScripting.State.ref.dll_D91762B7076BE462.mvfrm
Library\Bee\artifacts\mvdfrm\Unity.VisualStudio.Editor.ref.dll_3A975DBA53ABA4AD.mvfrm
Library\Bee\artifacts\mvdfrm\UnityEditor.UI.ref.dll_4C98D3F7040CD4F5.mvfrm
Library\Bee\artifacts\mvdfrm\UnityEngine.UI.ref.dll_08FEAA520A2EFD60.mvfrm
Library\Bee\artifacts\mvdfrm\UnityEditor.CoreModule.dll_3FA5DAD1378BBBF1.mvfrm
Library\Bee\artifacts\mvdfrm\UnityEditor.DeviceSimulatorModule.dll_E802CD50F1568BA0.mvfrm
Library\Bee\artifacts\mvdfrm\UnityEditor.DiagnosticsModule.dll_01760399DE4AD5EE.mvfrm
Library\Bee\artifacts\mvdfrm\UnityEditor.dll_3B643328ED60CAD4.mvfrm
Library\Bee\artifacts\mvdfrm\UnityEditor.GraphViewModule.dll_7B1E9BA2CE958805.mvfrm
Library\Bee\artifacts\mvdfrm\UnityEditor.PackageManagerUIModule.dll_F4A32F33DB2CF60D.mvfrm
Library\Bee\artifacts\mvdfrm\UnityEditor.QuickSearchModule.dll_8C8584A73721D247.mvfrm
Library\Bee\artifacts\mvdfrm\UnityEditor.SceneTemplateModule.dll_4EAE0DB22AD22FA8.mvfrm
Library\Bee\artifacts\mvdfrm\UnityEditor.TextCoreFontEngineModule.dll_188480A072A08A4F.mvfrm
Library\Bee\artifacts\mvdfrm\UnityEditor.TextCoreTextEngineModule.dll_606CB7120224436D.mvfrm
Library\Bee\artifacts\mvdfrm\UnityEditor.UIBuilderModule.dll_CFA748BF414E0139.mvfrm
Library\Bee\artifacts\mvdfrm\UnityEditor.UIElementsModule.dll_4BE59B19D3735F8D.mvfrm
Library\Bee\artifacts\mvdfrm\UnityEditor.UIElementsSamplesModule.dll_74A187C1217E59B0.mvfrm
Library\Bee\artifacts\mvdfrm\UnityEditor.UIServiceModule.dll_08995A222A855153.mvfrm
Library\Bee\artifacts\mvdfrm\UnityEditor.UnityConnectModule.dll_07042786D1256327.mvfrm
Library\Bee\artifacts\mvdfrm\UnityEngine.AccessibilityModule.dll_815379492B485745.mvfrm
Library\Bee\artifacts\mvdfrm\UnityEngine.AIModule.dll_37E681534D55F625.mvfrm
Library\Bee\artifacts\mvdfrm\UnityEngine.AndroidJNIModule.dll_CA2E83ED1C92CE63.mvfrm
Library\Bee\artifacts\mvdfrm\UnityEngine.AnimationModule.dll_49A417CBA8F25CAB.mvfrm
Library\Bee\artifacts\mvdfrm\UnityEngine.ARModule.dll_F1594656AA7354EE.mvfrm
Library\Bee\artifacts\mvdfrm\UnityEngine.AssetBundleModule.dll_D06EB79899888739.mvfrm
Library\Bee\artifacts\mvdfrm\UnityEngine.AudioModule.dll_6142576282B01ADD.mvfrm
Library\Bee\artifacts\mvdfrm\UnityEngine.ClothModule.dll_C82AB45D5CCCF9C1.mvfrm
Library\Bee\artifacts\mvdfrm\UnityEngine.ClusterInputModule.dll_86A09C9C82AD35ED.mvfrm
Library\Bee\artifacts\mvdfrm\UnityEngine.ClusterRendererModule.dll_EDAF8FC261119924.mvfrm
Library\Bee\artifacts\mvdfrm\UnityEngine.CoreModule.dll_62C6AE23DF91271C.mvfrm
Library\Bee\artifacts\mvdfrm\UnityEngine.CrashReportingModule.dll_382563E78F054434.mvfrm
Library\Bee\artifacts\mvdfrm\UnityEngine.DirectorModule.dll_F883F3168D6E5C39.mvfrm
Library\Bee\artifacts\mvdfrm\UnityEngine.dll_6E087A014BD457B9.mvfrm
Library\Bee\artifacts\mvdfrm\UnityEngine.DSPGraphModule.dll_FDD5547FFFCF2D5A.mvfrm
Library\Bee\artifacts\mvdfrm\UnityEngine.GameCenterModule.dll_F47BCE07E2D3BF54.mvfrm
Library\Bee\artifacts\mvdfrm\UnityEngine.GIModule.dll_D022CA60E904DE3F.mvfrm
Library\Bee\artifacts\mvdfrm\UnityEngine.GridModule.dll_4037CA11F7E5BD13.mvfrm
Library\Bee\artifacts\mvdfrm\UnityEngine.HotReloadModule.dll_CAECD5D18425782D.mvfrm
Library\Bee\artifacts\mvdfrm\UnityEngine.ImageConversionModule.dll_59A18D72E3365118.mvfrm
Library\Bee\artifacts\mvdfrm\UnityEngine.IMGUIModule.dll_99A1F6C948E1AEBE.mvfrm
Library\Bee\artifacts\mvdfrm\UnityEngine.InputLegacyModule.dll_61B3D2B7317A3D2A.mvfrm
Library\Bee\artifacts\mvdfrm\UnityEngine.InputModule.dll_C7B81F12F8E83F81.mvfrm
Library\Bee\artifacts\mvdfrm\UnityEngine.JSONSerializeModule.dll_E16B02852A83B7CF.mvfrm
Library\Bee\artifacts\mvdfrm\UnityEngine.LocalizationModule.dll_C4ED66EF1A2928E6.mvfrm
Library\Bee\artifacts\mvdfrm\UnityEngine.ParticleSystemModule.dll_8B37AD33FD16CFC2.mvfrm
Library\Bee\artifacts\mvdfrm\UnityEngine.PerformanceReportingModule.dll_B408551B7CDED7DB.mvfrm
Library\Bee\artifacts\mvdfrm\UnityEngine.Physics2DModule.dll_964A07BC49EF5440.mvfrm
Library\Bee\artifacts\mvdfrm\UnityEngine.PhysicsModule.dll_756386A4223D734E.mvfrm
Library\Bee\artifacts\mvdfrm\UnityEngine.ProfilerModule.dll_2ACA2C4D26C7E346.mvfrm
Library\Bee\artifacts\mvdfrm\UnityEngine.RuntimeInitializeOnLoadManagerInitializerModule.dll_39FAA465354D4509.mvfrm
Library\Bee\artifacts\mvdfrm\UnityEngine.ScreenCaptureModule.dll_FB52B00A3EEFE431.mvfrm
Library\Bee\artifacts\mvdfrm\UnityEngine.SharedInternalsModule.dll_DDB2CC485A644C68.mvfrm
Library\Bee\artifacts\mvdfrm\UnityEngine.SpriteMaskModule.dll_DDA84098044354CE.mvfrm
Library\Bee\artifacts\mvdfrm\UnityEngine.SpriteShapeModule.dll_E9CFE4F34F2ABF43.mvfrm
Library\Bee\artifacts\mvdfrm\UnityEngine.StreamingModule.dll_FE39051BF87A13E9.mvfrm
Library\Bee\artifacts\mvdfrm\UnityEngine.SubstanceModule.dll_DAE4196543CD11F7.mvfrm
Library\Bee\artifacts\mvdfrm\UnityEngine.SubsystemsModule.dll_4855A6F9D28B3CE1.mvfrm
Library\Bee\artifacts\mvdfrm\UnityEngine.TerrainModule.dll_8FAA0212F7FBBC3C.mvfrm
Library\Bee\artifacts\mvdfrm\UnityEngine.TerrainPhysicsModule.dll_8BB256071659CA4F.mvfrm
Library\Bee\artifacts\mvdfrm\UnityEngine.TextCoreFontEngineModule.dll_96E3FBF3859E491A.mvfrm
Library\Bee\artifacts\mvdfrm\UnityEngine.TextCoreTextEngineModule.dll_DECC326515220238.mvfrm
Library\Bee\artifacts\mvdfrm\UnityEngine.TextRenderingModule.dll_24922214F6276426.mvfrm
Library\Bee\artifacts\mvdfrm\UnityEngine.TilemapModule.dll_2EA669940FB89D45.mvfrm
Library\Bee\artifacts\mvdfrm\UnityEngine.TLSModule.dll_C0D2E236C1ED40A2.mvfrm
Library\Bee\artifacts\mvdfrm\UnityEngine.UIElementsModule.dll_4C940861D5B778D8.mvfrm
Library\Bee\artifacts\mvdfrm\UnityEngine.UIElementsNativeModule.dll_3F1CE3C94CA5662F.mvfrm
Library\Bee\artifacts\mvdfrm\UnityEngine.UIModule.dll_335A1F80A99CFBD1.mvfrm
Library\Bee\artifacts\mvdfrm\UnityEngine.UmbraModule.dll_DC17037B0FD6C650.mvfrm
Library\Bee\artifacts\mvdfrm\UnityEngine.UNETModule.dll_F56CF60D2CA01C95.mvfrm
Library\Bee\artifacts\mvdfrm\UnityEngine.UnityAnalyticsModule.dll_AAD71DFDA93E21BE.mvfrm
Library\Bee\artifacts\mvdfrm\UnityEngine.UnityConnectModule.dll_F463AB95CBAD63D2.mvfrm
Library\Bee\artifacts\mvdfrm\UnityEngine.UnityCurlModule.dll_7CC0B8FD19064E98.mvfrm
Library\Bee\artifacts\mvdfrm\UnityEngine.UnityTestProtocolModule.dll_30643DB37B79AF06.mvfrm
Library\Bee\artifacts\mvdfrm\UnityEngine.UnityWebRequestAssetBundleModule.dll_EFBBD6848B9A630F.mvfrm
Library\Bee\artifacts\mvdfrm\UnityEngine.UnityWebRequestAudioModule.dll_2C04A8FA0349A273.mvfrm
Library\Bee\artifacts\mvdfrm\UnityEngine.UnityWebRequestModule.dll_6B40951CEE2AEB97.mvfrm
Library\Bee\artifacts\mvdfrm\UnityEngine.UnityWebRequestTextureModule.dll_D35616EBD32654A8.mvfrm
Library\Bee\artifacts\mvdfrm\UnityEngine.UnityWebRequestWWWModule.dll_A98E77C104E1BEA4.mvfrm
Library\Bee\artifacts\mvdfrm\UnityEngine.VehiclesModule.dll_7046EC9607982BD4.mvfrm
Library\Bee\artifacts\mvdfrm\UnityEngine.VFXModule.dll_41B17AA5985AAA0F.mvfrm
Library\Bee\artifacts\mvdfrm\UnityEngine.VideoModule.dll_864BDBCD45423682.mvfrm
Library\Bee\artifacts\mvdfrm\UnityEngine.VirtualTexturingModule.dll_63A998382553E6BA.mvfrm
Library\Bee\artifacts\mvdfrm\UnityEngine.VRModule.dll_862C46064B578149.mvfrm
Library\Bee\artifacts\mvdfrm\UnityEngine.WindModule.dll_D915894C70C7A585.mvfrm
Library\Bee\artifacts\mvdfrm\UnityEngine.XRModule.dll_B8EB090AD491CEA7.mvfrm
Library\Bee\artifacts\mvdfrm\Unity.VisualScripting.Antlr3.Runtime.dll_2D02B879D2BD5B22.mvfrm